<svg width="236.36" height="100" version="1.1" viewBox="0 0 236.36 100" xmlns="http://www.w3.org/2000/svg">
 <style>.st2{fill:#4a86cf}.st4{fill:#7b7979}</style>
 <g transform="translate(.12229 .12449)" stroke-width=".56818">
  <path d="m229.14 99.591h-222.16c-3.75 0-6.8182-3.0682-6.8182-6.8182v-85.795c0-3.75 3.0682-6.8182 6.8182-6.8182h222.16c3.75 0 6.8182 3.0682 6.8182 6.8182v85.795c0 3.75-3.0682 6.8182-6.8182 6.8182z" fill="#fff"/>
  <path d="m229.14 99.591h-222.16c-3.75 0-6.8182-3.0682-6.8182-6.8182v-85.795c0-3.75 3.0682-6.8182 6.8182-6.8182h222.16c3.75 0 6.8182 3.0682 6.8182 6.8182v85.795c0 3.75-3.0682 6.8182-6.8182 6.8182z" fill="none" stroke="#a6a6a6"/>
  <path class="st2" d="m70.216 14.136c-14.716 0-17.5 21.023-9.2045 21.023s23.977-21.023 9.2045-21.023zm-24.489 18.409c4.4318 0.28409 9.2614-16.875 0.96591-15.795-8.2955 1.0795-5.3977 15.511-0.96591 15.795zm-20.227 10.625c3.125-1.3636 0.39773-14.886-4.9432-11.193-5.3409 3.6932 1.8182 12.614 4.9432 11.193zm8.8636-7.0455c3.75-0.73864 3.9205-16.08-2.7273-13.352-6.6477 2.7273-1.0227 14.091 2.7273 13.352zm19.489 34.318c0.68182 5.0568-3.6932 7.5568-8.0114 4.3182-13.636-10.398 22.614-15.568 20.227-29.773-1.9886-11.761-38.182-8.1818-42.273 10.284-2.7841 12.5 11.477 29.773 26.364 29.773 7.3295 0 15.795-6.5909 17.33-15 1.25-6.4205-14.148-3.8636-13.636 0.39773z"/>
 </g>
 <g transform="matrix(.56818 0 0 .56818 -11.083 -9.3755)">
  <path class="st4" d="m180.6 55c0-5.1 3.1-8.2 7.2-8.2 2.2 0 3.6 1 4.5 1.9l-1.1 1.3c-0.8-0.8-1.8-1.5-3.4-1.5-3.2 0-5.2 2.4-5.2 6.4s1.9 6.4 5.2 6.4c1.1 0 2.2-0.3 2.8-0.9v-4.1h-3.3v-1.7h5.2v6.6c-1 1.1-2.7 1.8-4.9 1.8-4.1 0.2-7-2.8-7-8zm14.5 2.1c0-3.8 2.6-6.1 5.2-6.1 3 0 4.7 2.1 4.7 5.5 0 0.4 0 0.8-0.1 1.1h-7.9c0.1 2.5 1.7 4.1 3.9 4.1 1.1 0 2-0.4 2.9-0.9l0.7 1.3c-1 0.7-2.3 1.2-3.9 1.2-3-0.1-5.5-2.4-5.5-6.2zm8.2-1c0-2.3-1.1-3.6-2.9-3.6-1.6 0-3.1 1.3-3.3 3.6zm4.7 3.2v-6.5h-1.7v-1.5l1.8-0.1 0.2-3.3h1.6v3.3h3.2v1.6h-3.2v6.5c0 1.4 0.5 2.3 1.8 2.3 0.4 0 0.9-0.2 1.3-0.3l0.4 1.5c-0.7 0.2-1.4 0.4-2.2 0.4-2.4 0-3.2-1.6-3.2-3.9zm12.2-11.7c0-0.8 0.6-1.3 1.4-1.3s1.4 0.5 1.4 1.3c0 0.7-0.6 1.3-1.4 1.3-0.8-0.1-1.4-0.6-1.4-1.3zm0.3 3.6h2v11.7h-2zm5.9 8.1v-6.5h-1.7v-1.5l1.8-0.1 0.2-3.3h1.6v3.3h3.2v1.6h-3.2v6.5c0 1.4 0.5 2.3 1.8 2.3 0.4 0 1-0.2 1.3-0.3l0.4 1.5c-0.7 0.2-1.4 0.4-2.2 0.4-2.3 0-3.2-1.6-3.2-3.9zm11.7-2.2c0-3.9 2.5-6.1 5.4-6.1s5.4 2.2 5.4 6.1-2.5 6.1-5.4 6.1c-2.8 0-5.4-2.2-5.4-6.1zm8.8 0c0-2.7-1.4-4.5-3.4-4.5s-3.4 1.8-3.4 4.5 1.4 4.5 3.4 4.5 3.4-1.8 3.4-4.5zm4.7-5.9h1.6l0.2 1.7h0.1c1.1-1.1 2.3-2 3.9-2 2.5 0 3.6 1.6 3.6 4.6v7.4h-2v-7.1c0-2.2-0.7-3.1-2.2-3.1-1.2 0-2 0.6-3.2 1.8v8.4h-2z"/>
  <path d="m277.3 84.2c-5.8 0.2-10.3 2.2-13.6 6-3.5 4-5.2 9.6-5.2 16.7s1.7 12.6 5.2 16.7c3.5 4 8.2 6 14.3 6s10.9-2 14.3-6c3.5-4 5.2-9.6 5.2-16.7s-1.7-12.7-5.2-16.7-8.2-6-14.3-6zm0.4 8.2h0.3c3 0 5.3 1.3 7 3.8 1.6 2.5 2.5 6.1 2.5 10.8 0 4.6-0.8 8.2-2.5 10.7-1.6 2.5-4 3.8-7 3.8s-5.3-1.3-6.9-3.8-2.5-6.1-2.5-10.7 0.8-8.2 2.5-10.8c1.6-2.4 3.8-3.7 6.6-3.8zm-65.4 33.2c-5.1 4.2-12.6 4.1-15.7 4.1-6.3 0-11.3-2-15-6.1s-5.5-9.6-5.5-16.6c0-7.1 1.9-12.6 5.6-16.7 3.8-4.1 8.9-6.1 15.5-6.1 2.5 0 4.9 0.3 7.2 0.8s4.5 1.4 6.6 2.4l-2.6 7.6c-1.2-0.6-2.5-1.2-3.7-1.7-2.1-0.7-4.2-1-6.3-1-3.9 0-6.9 1.3-9 3.8s-3.2 6.1-3.2 10.8c0 4.6 1 8.2 3.1 10.8 2 2.5 5.1 3.8 8.7 3.8s5.9-0.9 7.1-1.8v-7.6h-7.9v-7.6h15.3m6.5-19.5h6.2l19.5 26.4v-26.4h8.4v43.9h-6.2l-19.5-26.4v26.4h-8.4v-43.9m85 0h12.4l8.7 27.4 8.7-27.4h10.5l4.8 43.9h-9.3l-2.9-27.5-8.7 27.6h-6.2l-8.8-28.5-2.8 28.4h-9.3l4.8-43.9m49.8 0h26.5v8.6h-16.7v9h12.8v7.7h-12.8v10h17.2v8.6h-27v-43.9"/>
  <path d="m182.6 142.5h12.3v1.1h-11v8.2h10.2v1.1h-10.2v9.1h11v1.1h-12.3zm25.9 9.8-6.6-9.8h1.5l5.8 8.8 6.1-8.8h1.4l-6.9 9.7 7.5 10.7h-1.5l-6.8-9.7-6.6 9.7h-1.4zm21.5-8.7h-7.2v-1.1h15.7v1.1h-7.2v19.3h-1.3zm15.5-1.1h12.3v1.1h-11v8.2h10.2v1.1h-10.2v9.1h11v1.1h-12.3zm19.5 0h1.5l13.2 18.8v-18.8h1.2v20.4h-1.5l-13.2-18.9v18.9h-1.2zm23.5 19.2 0.4-1c2.1 0.9 4.4 1.4 6.4 1.4 3.6 0 5.8-1.7 5.8-4.3 0-6.1-12.3-3.2-12.3-10.2 0-3.3 2.8-5.4 7.2-5.4 1.9 0 3.8 0.4 5.4 1.1l-0.4 1c-1.6-0.7-3.4-1.1-5.2-1.1-3.7 0-5.8 1.5-5.8 4.1 0 6.1 12.3 3.1 12.3 10.1 0 3.4-2.8 5.6-7.2 5.6-2.1 0.2-4.5-0.3-6.6-1.3zm21.2-19.2h1.2v20.4h-1.2zm9.3 10.4c0-6.2 3.8-10.5 9.5-10.5 5.6 0 9.3 4.1 9.3 10.3 0 6.3-3.8 10.5-9.5 10.5-5.6 0-9.3-4.2-9.3-10.3zm17.5 0c0-5.6-3.3-9.4-8.2-9.4-4.8 0-8 3.7-8 9.2 0 5.6 3.2 9.4 8.2 9.4 4.8 0 8-3.7 8-9.2zm9-10.4h1.5l13.2 18.8v-18.8h1.2v20.4h-1.4l-13.3-18.9v18.9h-1.2zm23.4 19.2 0.4-1c2.1 0.9 4.4 1.4 6.4 1.4 3.6 0 5.8-1.7 5.8-4.3 0-6.1-12.3-3.2-12.3-10.2 0-3.3 2.8-5.4 7.2-5.4 1.9 0 3.8 0.4 5.4 1.1l-0.4 1c-1.6-0.7-3.4-1.1-5.2-1.1-3.7 0-5.8 1.5-5.8 4.1 0 6.1 12.3 3.1 12.3 10.1 0 3.4-2.8 5.6-7.2 5.6-2.1 0.2-4.4-0.3-6.6-1.3z"/>
 </g>
</svg>
